{
  "page": 1,
  "total_results": 20017,
  "total_pages": 1001,
  "results": [
    {
      "original_name": "Doctor Who",
      "id": 57243,
      "name": "Doctor Who",
      "vote_count": 724,
      "vote_average": 6.95,
      "poster_path": "/cFcZYgPRFZdBkA7EsxHz5Cb8x5.jpg",
      "first_air_date": "2005-03-26",
      "popularity": 58.977748,
      "genre_ids": [
        10759,
        18,
        10765
      ],
      "original_language": "en",
      "backdrop_path": "/tQkigP2fItdzJWvtIhBvHxgs5yE.jpg",
      "overview": "The Doctor looks and seems human. He's handsome, witty, and could be mistaken for just another man in the street. But he is a Time Lord: a 900 year old alien with 2 hearts, part of a gifted civilization who mastered time travel. The Doctor saves planets for a living – more of a hobby actually, and he's very, very good at it. He's saved us from alien menaces and evil from before time began – but just who is he?",
      "origin_country": [
        "GB"
      ]
    },
    {
      "original_name": "Twin Peaks",
      "id": 1920,
      "name": "Twin Peaks",
      "vote_count": 314,
      "vote_average": 8.19,
      "poster_path": "/6W6zWBAay6XVBgJsOu6c2mlFZ8l.jpg",
      "first_air_date": "1990-04-08",
      "popularity": 45.72406,
      "genre_ids": [
        18,
        9648,
        53
      ],
      "original_language": "en",
      "backdrop_path": "/3Y91NnZZyTS8UbgJUw3AZ6WWKTN.jpg",
      "overview": "The body of Laura Palmer is washed up on a beach near the small Washington state town of Twin Peaks. FBI Special Agent Dale Cooper is called in to investigate her strange demise only to uncover a web of mystery that ultimately leads him deep into the heart of the surrounding woodland and his very own soul.",
      "origin_country": [
        "US"
      ]
    },
    {
      "original_name": "Game of Thrones",
      "id": 1399,
      "name": "Game of Thrones",
      "vote_count": 2372,
      "vote_average": 8.05,
      "poster_path": "/jIhL6mlT7AblhbHJgEoiBIOUVl1.jpg",
      "first_air_date": "2011-04-17",
      "popularity": 32.753345,
      "genre_ids": [
        10759,
        18,
        10765
      ],
      "original_language": "en",
      "backdrop_path": "/mUkuc2wyV9dHLG0D0Loaw5pO2s8.jpg",
      "overview": "Seven noble families fight for control of the mythical land of Westeros. Friction between the houses leads to full-scale war. All while a very ancient evil awakens in the farthest north. Amidst the war, a neglected military order of misfits, the Night's Watch, is all that stands between the realms of men and icy horrors beyond.",
      "origin_country": [
        "US"
      ]
    },
    {
      "original_name": "The Walking Dead",
      "id": 1402,
      "name": "The Walking Dead",
      "vote_count": 2084,
      "vote_average": 7.35,
      "poster_path": "/vxuoMW6YBt6UsxvMfRNwRl9LtWS.jpg",
      "first_air_date": "2010-10-31",
      "popularity": 31.317807,
      "genre_ids": [
        10759,
        18
      ],
      "original_language": "en",
      "backdrop_path": "/h1qyblc5p9G3ZWIVK8ZrkpxcXgO.jpg",
      "overview": "Sheriff's deputy Rick Grimes awakens from a coma to find a post-apocalyptic world dominated by flesh-eating zombies. He sets out to find his family and encounters many other survivors along the way.",
      "origin_country": [
        "US"
      ]
    },
    {
      "original_name": "Silicon Valley",
      "id": 60573,
      "name": "Silicon Valley",
      "vote_count": 268,
      "vote_average": 7.69,
      "poster_path": "/dc5r71XI1gD4YwIUoEYCLiVvtss.jpg",
      "first_air_date": "2014-04-06",
      "popularity": 30.273022,
      "genre_ids": [
        35
      ],
      "original_language": "en",
      "backdrop_path": "/4pfXAnWxOfEJsUgDPW0zqzs5UWv.jpg",
      "overview": "In the high-tech gold rush of modern Silicon Valley, the people most qualified to succeed are the least capable of handling success. Partially inspired by Mike Judge’s own experiences as a Silicon Valley engineer in the late ‘80s, Silicon Valley is an American sitcom that centers around six programmers who are living together and trying to make it big in the Silicon Valley.",
      "origin_country": [
        "US"
      ]
    },
    {
      "original_name": "Kördüğüm",
      "id": 65566,
      "name": "Intersection",
      "vote_count": 17,
      "vote_average": 4.65,
      "poster_path": "/fPuLlGnh4IaZRnsrKg2KijXLzuF.jpg",
      "first_air_date": "2016-01-07",
      "popularity": 27.363747,
      "genre_ids": [
        18
      ],
      "original_language": "en",
      "backdrop_path": "/f8jgQcaEUpaPwEMFNlI5EvY3Tuz.jpg",
      "overview": "Naz who is a paediatrician loses her baby during pregnancy. Even though her husband wants another baby, she refuses to go through the same thing all over again. She goes to Italy for a conference and meets Ali Nejat there.",
      "origin_country": [
        "TR"
      ]
    },
    {
      "original_name": "The Big Bang Theory",
      "id": 1418,
      "name": "The Big Bang Theory",
      "vote_count": 1600,
      "vote_average": 6.94,
      "poster_path": "/wQoosZYg9FqPrmI4zeCLRdEbqAB.jpg",
      "first_air_date": "2007-09-24",
      "popularity": 26.374346,
      "genre_ids": [
        35
      ],
      "original_language": "en",
      "backdrop_path": "/nGsNruW3W27V6r4gkyc3iiEGsKR.jpg",
      "overview": "The Big Bang Theory is centered on five characters living in Pasadena, California: roommates Leonard Hofstadter and Sheldon Cooper; Penny, a waitress and aspiring actress who lives across the hall; and Leonard and Sheldon's equally geeky and socially awkward friends and co-workers, mechanical engineer Howard Wolowitz and astrophysicist Raj Koothrappali. The geekiness and intellect of the four guys is contrasted for comic effect with Penny's social skills and common sense.",
      "origin_country": [
        "US"
      ]
    },
    {
      "original_name": "The Flash",
      "id": 60735,
      "name": "The Flash",
      "vote_count": 1249,
      "vote_average": 6.76,
      "poster_path": "/lUFK7ElGCk9kVEryDJHICeNdmd1.jpg",
      "first_air_date": "2014-10-07",
      "popularity": 24.354849,
      "genre_ids": [
        18,
        10765
      ],
      "original_language": "en",
      "backdrop_path": "/mmxxEpTqVdwBlu5Pii7tbedBkPC.jpg",
      "overview": "After a particle accelerator causes a freak storm, CSI Investigator Barry Allen is struck by lightning and falls into a coma. Months later he awakens with the power of super speed, granting him the ability to move through Central City like an unseen guardian angel. Though initially excited by his newfound powers, Barry is shocked to discover he is not the only \"meta-human\" who was created in the wake of the accelerator explosion -- and not everyone is using their new powers for good. Barry partners with S.T.A.R. Labs and dedicates his life to protect the innocent. For now, only a few close friends and associates know that Barry is literally the fastest man alive, but it won't be long before the world learns what Barry Allen has become...The Flash.",
      "origin_country": [
        "US"
      ]
    },
    {
      "original_name": "Prison Break",
      "id": 2288,
      "name": "Prison Break",
      "vote_count": 557,
      "vote_average": 7.43,
      "poster_path": "/38KlJOm67KyZqT9ZcBSsmET04HG.jpg",
      "first_air_date": "2005-08-29",
      "popularity": 19.004326,
      "genre_ids": [
        10759,
        80,
        18,
        9648
      ],
      "original_language": "en",
      "backdrop_path": "/92OPBZpLc82y8CzOtrQ8P9RDvIN.jpg",
      "overview": "Due to a political conspiracy, an innocent man is sent to death row and his only hope is his brother, who makes it his mission to deliberately get himself sent to the same prison in order to break the both of them out, from the inside out.",
      "origin_country": [
        "US"
      ]
    },
    {
      "original_name": "Orange Is the New Black",
      "id": 1424,
      "name": "Orange Is the New Black",
      "vote_count": 321,
      "vote_average": 7.25,
      "poster_path": "/22mSgZmStDb1luWdolYY3feLVW9.jpg",
      "first_air_date": "2013-07-11",
      "popularity": 17.238604,
      "genre_ids": [
        35,
        18
      ],
      "original_language": "en",
      "backdrop_path": "/5lW1fcWpx89dibAFfdGNlcvkdV8.jpg",
      "overview": "A crime she committed in her youthful past sends Piper Chapman to a women's prison, where she trades her comfortable New York life for one of unexpected camaraderie and conflict in an eccentric group of fellow inmates.",
      "origin_country": [
        "US"
      ]
    },
    {
      "original_name": "American Gods",
      "id": 46639,
      "name": "American Gods",
      "vote_count": 107,
      "vote_average": 6.43,
      "poster_path": "/ovnH6mQfVembYErJXYhnh6e0R9C.jpg",
      "first_air_date": "2017-04-30",
      "popularity": 17.214096,
      "genre_ids": [
        10759,
        18,
        9648,
        10765
      ],
      "original_language": "en",
      "backdrop_path": "/41gGxQbNvKe2h8JB8dO43AlZYNu.jpg",
      "overview": "Based on Neil Gaiman's fantasy novel about an ex-con who becomes the traveling partner of a conman who turns out to be one of the older gods trying to recruit troops to battle the upstart deities.",
      "origin_country": [
        "US"
      ]
    },
    {
      "original_name": "Breaking Bad",
      "id": 1396,
      "name": "Breaking Bad",
      "vote_count": 1548,
      "vote_average": 8.17,
      "poster_path": "/1yeVJox3rjo2jBKrrihIMj7uoS9.jpg",
      "first_air_date": "2008-01-19",
      "popularity": 16.500097,
      "genre_ids": [
        18
      ],
      "original_language": "en",
      "backdrop_path": "/eSzpy96DwBujGFj0xMbXBcGcfxX.jpg",
      "overview": "Breaking Bad is an American crime drama television series created and produced by Vince Gilligan. Set and produced in Albuquerque, New Mexico, Breaking Bad is the story of Walter White, a struggling high school chemistry teacher who is diagnosed with inoperable lung cancer at the beginning of the series. He turns to a life of crime, producing and selling methamphetamine, in order to secure his family's financial future before he dies, teaming with his former student, Jesse Pinkman. Heavily serialized, the series is known for positioning its characters in seemingly inextricable corners and has been labeled a contemporary western by its creator.",
      "origin_country": [
        "US"
      ]
    },
    {
      "original_name": "Arrow",
      "id": 1412,
      "name": "Arrow",
      "vote_count": 1045,
      "vote_average": 6.16,
      "poster_path": "/mo0FP1GxOFZT4UDde7RFDz5APXF.jpg",
      "first_air_date": "2012-10-10",
      "popularity": 16.038415,
      "genre_ids": [
        28,
        12,
        80,
        18,
        9648,
        878
      ],
      "original_language": "en",
      "backdrop_path": "/dKxkwAJfGuznW8Hu0mhaDJtna0n.jpg",
      "overview": "Spoiled billionaire playboy Oliver Queen is missing and presumed dead when his yacht is lost at sea. He returns five years later a changed man, determined to clean up the city as a hooded vigilante armed with a bow.",
      "origin_country": [
        "US"
      ]
    },
    {
      "original_name": "Supernatural",
      "id": 1622,
      "name": "Supernatural",
      "vote_count": 886,
      "vote_average": 6.98,
      "poster_path": "/3iFm6Kz7iYoFaEcj4fLyZHAmTQA.jpg",
      "first_air_date": "2005-09-13",
      "popularity": 15.008968,
      "genre_ids": [
        18,
        9648,
        10765
      ],
      "original_language": "en",
      "backdrop_path": "/o9OKe3M06QMLOzTl3l6GStYtnE9.jpg",
      "overview": "When they were boys, Sam and Dean Winchester lost their mother to a mysterious and demonic supernatural force. Subsequently, their father raised them to be soldiers. He taught them about the paranormal evil that lives in the dark corners and on the back roads of America ... and he taught them how to kill it. Now, the Winchester brothers crisscross the country in their '67 Chevy Impala, battling every kind of supernatural threat they encounter along the way. ",
      "origin_country": [
        "US"
      ]
    },
    {
      "original_name": "Better Call Saul",
      "id": 60059,
      "name": "Better Call Saul",
      "vote_count": 522,
      "vote_average": 8.06,
      "poster_path": "/xEggmiD4WoJBQR2AiVF46yPUUgD.jpg",
      "first_air_date": "2015-02-08",
      "popularity": 14.659702,
      "genre_ids": [
        35,
        80,
        18
      ],
      "original_language": "en",
      "backdrop_path": "/AlqSvfI6bmxh31iaJTgjNSemF3D.jpg",
      "overview": "Six years before Saul Goodman meets Walter White. We meet him when the man who will become Saul Goodman is known as Jimmy McGill, a small-time lawyer searching for his destiny, and, more immediately, hustling to make ends meet. Working alongside, and, often, against Jimmy, is “fixer” Mike Erhmantraut. The series will track Jimmy's transformation into Saul Goodman, the man who puts “criminal” in “criminal lawyer\".",
      "origin_country": [
        "US"
      ]
    },
    {
      "original_name": "Fear the Walking Dead",
      "id": 62286,
      "name": "Fear the Walking Dead",
      "vote_count": 385,
      "vote_average": 6.24,
      "poster_path": "/cCDuZqLv6jwnf3cZZq7g3uNLaIu.jpg",
      "first_air_date": "2015-08-23",
      "popularity": 14.435499,
      "genre_ids": [
        18,
        27
      ],
      "original_language": "en",
      "backdrop_path": "/okhLwP26UXHJ4KYGVsERQqp3129.jpg",
      "overview": "What did the world look like as it was transforming into the horrifying apocalypse depicted in \"The Walking Dead\"? This spin-off set in Los Angeles, following new characters as they face the beginning of the end of the world, will answer that question.",
      "origin_country": [
        "US"
      ]
    },
    {
      "original_name": "Friends",
      "id": 1668,
      "name": "Friends",
      "vote_count": 655,
      "vote_average": 7.72,
      "poster_path": "/7buCWBTpiPrCF5Lt023dSC60rgS.jpg",
      "first_air_date": "1994-09-22",
      "popularity": 14.359675,
      "genre_ids": [
        35
      ],
      "original_language": "en",
      "backdrop_path": "/efiX8iir6GEBWCD0uCFIi5NAyYA.jpg",
      "overview": "Friends is an American sitcom revolving around a group of friends in the New York City borough of Manhattan. Episodes typically depict the friends' comedic and romantic adventures and career issues, such as Joey auditioning for roles or Rachel seeking jobs in the fashion industry. The six characters each have many dates and serious relationships, such as Monica with Richard Burke and Ross with Emily Waltham. Other frequently recurring characters include Ross and Monica's parents in Long Island, Ross's ex-wife and their son, Central Perk barista Gunther, Chandler's ex-girlfriend Janice, and Phoebe's twin sister Ursula.",
      "origin_country": [
        "US"
      ]
    },
    {
      "original_name": "Gotham",
      "id": 60708,
      "name": "Gotham",
      "vote_count": 452,
      "vote_average": 6.8,
      "poster_path": "/2knM0D9yGrnUgECWfj6OSJl4Poa.jpg",
      "first_air_date": "2014-09-22",
      "popularity": 14.168909,
      "genre_ids": [
        18,
        14,
        53,
        80
      ],
      "original_language": "en",
      "backdrop_path": "/bRFmBU0VPr9s1oeJHuS5Zb5nZQS.jpg",
      "overview": "Before there was Batman, there was GOTHAM. \n\nEveryone knows the name Commissioner Gordon. He is one of the crime world's greatest foes, a man whose reputation is synonymous with law and order. But what is known of Gordon's story and his rise from rookie detective to Police Commissioner? What did it take to navigate the multiple layers of corruption that secretly ruled Gotham City, the spawning ground of the world's most iconic villains? And what circumstances created them – the larger-than-life personas who would become Catwoman, The Penguin, The Riddler, Two-Face and The Joker? ",
      "origin_country": [
        "US"
      ]
    },
    {
      "original_name": "The Simpsons",
      "id": 456,
      "name": "The Simpsons",
      "vote_count": 866,
      "vote_average": 7.15,
      "poster_path": "/yTZQkSsxUFJZJe67IenRM0AEklc.jpg",
      "first_air_date": "1989-12-17",
      "popularity": 14.141429,
      "genre_ids": [
        16,
        35
      ],
      "original_language": "en",
      "backdrop_path": "/f5uNbUC76oowt5mt5J9QlqrIYQ6.jpg",
      "overview": "Set in Springfield, the average American town, the show focuses on the antics and everyday adventures of the Simpson family; Homer, Marge, Bart, Lisa and Maggie, as well as a virtual cast of thousands. Since the beginning, the series has been a pop culture icon, attracting hundreds of celebrities to guest star. The show has also made name for itself in its fearless satirical take on politics, media and American life in general.",
      "origin_country": [
        "US"
      ]
    },
    {
      "original_name": "Law & Order: Special Victims Unit",
      "id": 2734,
      "name": "Law & Order: Special Victims Unit",
      "vote_count": 280,
      "vote_average": 6.08,
      "poster_path": "/5KfFnPRIgxan2eJ7XxMkucpq8VI.jpg",
      "first_air_date": "1999-09-20",
      "popularity": 13.916448,
      "genre_ids": [
        18
      ],
      "original_language": "en",
      "backdrop_path": "/nALNtBMQVf27H4HiSZnKNfFVvXX.jpg",
      "overview": "In the criminal justice system, sexually-based offenses are considered especially heinous. In New York City, the dedicated detectives who investigate these vicious felonies are members of an elite squad known as the Special Victims Unit. These are their stories.",
      "origin_country": [
        "US"
      ]
    }
  ]
}